%YAML 1.1
%TAG !u! tag:unity3d.com,2011:
--- !u!78 &1
TagManager:
  serializedVersion: 2
  tags:
  - Door
  - Juice
  layers:
  - Default
  - TransparentFX
  - Ignore Raycast
  - 
  - Water
  - UI
  - 
  - 
  - Collision Layer
  - 
  - 
  - 
  - 
  - 
  - 
  - 
  - 
  - 
  - 
  - 
  - 
  - 
  - 
  - 
  - 
  - 
  - 
  - 
  - 
  - 
  - 
  - 
  m_SortingLayers:
  - name: Default
    uniqueID: 0
    locked: 0
  - name: Floor
    uniqueID: 581141285
    locked: 0
  - name: Obstacles
    uniqueID: 1233789747
    locked: 0
  - name: Food
    uniqueID: 190096181
    locked: 0
  - name: Characters
    uniqueID: 4147581835
    locked: 0
  - name: Door
    uniqueID: 3789242027
    locked: 0
